Chapter 02
…
Next, well use the fitted() function to simulate model-implied summaries for the expected govact value, given particular predictor values. Our first model only has negemot as a predictor, and well ask for the expected govact values for negemot ranging from 0 to 7.

nd <- tibble(negemot = seq(from = 0, to = 7, length.out = 30))

f_fit1 <-
  fitted(fit1,
         newdata = nd) %>% 
  as_tibble() %>% 
  bind_cols(nd)

f_fit1

## # A tibble: 30 x 5
##    Estimate Est.Error  Q2.5 Q97.5 negemot
##       <dbl>     <dbl> <dbl> <dbl>   <dbl>
##  1     2.76    0.0993  2.56  2.95   0    
##  2     2.88    0.0937  2.69  3.06   0.241
##  3     3.01    0.0882  2.83  3.17   0.483
##  4     3.13    0.0827  2.96  3.29   0.724
##  5     3.25    0.0774  3.10  3.40   0.966
##  6     3.38    0.0722  3.23  3.52   1.21 
##  7     3.50    0.0671  3.37  3.63   1.45 
##  8     3.63    0.0622  3.50  3.75   1.69 
##  9     3.75    0.0576  3.64  3.86   1.93 
## 10     3.87    0.0532  3.77  3.98   2.17 
## # ... with 20 more rows
…
You get a wealth of output, more of which can be seen with str(l_fit3). For now, notice the All pareto k estimates are good (k < 0.5). Pareto \(k\) values can be used for diagnostics. Each case in the data gets its own \(k\) value and we like it when those \(k\)s are low. The makers of the loo package get worried when those \(k\)s exceed 0.7 and as a result, loo() spits out a warning message when they do. Happily, we have no such warning messages in this example.

If you want to work with the \(k\) values directly, you can extract them and place them into a tibble like so:

l_fit3$diagnostics %>% 
  as_tibble()

## # A tibble: 815 x 2
##    pareto_k n_eff
##       <dbl> <dbl>
##  1 -0.163    3972
##  2 -0.0211   3992
##  3  0.00688  3884
##  4  0.0628   2453
##  5  0.0323   3996
##  6  0.0463   3964
##  7  0.0621   3935
##  8 -0.0379   3993
##  9 -0.0574   3994
## 10 -0.0214   3986
## # ... with 805 more rows
…
