…
Next, we'll use the `fitted()` function to simulate model-implied summaries for the expected `govact` value, given particular predictor values. Our first model only has `negemot` as a predictor, and we'll ask for the expected `govact` values for `negemot` ranging from 0 to 7.


```r
nd <- tibble(negemot = seq(from = 0, to = 7, length.out = 30))

f_model2 <-
  fitted(model2,
         newdata = nd) %>% 
  as_tibble() %>% 
  bind_cols(nd)

f_model2
#> # A tibble: 30 x 5
#>   Estimate Est.Error  Q2.5 Q97.5 negemot
#>      <dbl>     <dbl> <dbl> <dbl>   <dbl>
#> 1     2.76    0.102   2.56  2.96   0    
#> 2     2.88    0.0963  2.69  3.07   0.241
#> 3     3.01    0.0906  2.83  3.18   0.483
#> 4     3.13    0.0849  2.96  3.29   0.724
#> 5     3.25    0.0794  3.10  3.41   0.966
#> 6     3.38    0.0739  3.23  3.52   1.21 
#> # ... with 24 more rows
```
…
You get a wealth of output, more of which can be seen with `str(l_model4)`. For now, notice the "All pareto k estimates are good (k < 0.5)." Pareto $k$ values [can be used for diagnostics](https://cran.r-project.org/web/packages/loo/vignettes/loo2-example.html#plotting-pareto-k-diagnostics). Each case in the data gets its own $k$ value and we like it when those $k$s are low. The makers of the loo package get worried when those $k$s exceed 0.7 and as a result, `loo()` spits out a warning message when they do. Happily, we have no such warning messages in this example.

If you want to work with the $k$ values directly, you can extract them and place them into a tibble like so:


```r
l_model4$diagnostics %>% 
  as_tibble()
#> # A tibble: 815 x 2
#>   pareto_k n_eff
#>      <dbl> <dbl>
#> 1  -0.120  3973.
#> 2  -0.143  3992.
#> 3   0.0169 3890.
#> 4   0.311  2405.
#> 5  -0.0462 3997.
#> 6  -0.126  3966.
#> # ... with 809 more rows
```
…
