…
```r
protest <-
  protest %>% 
  mutate(group = factor(protest,
                        levels = 0:2,
                        labels = c("none", "individual", "collective")))

protest %>% 
  select(protest, group)
```

```
## # A tibble: 129 x 2
##    protest group     
##      <dbl> <fct>     
##  1       2 collective
##  2       0 none      
##  3       2 collective
##  4       2 collective
##  5       2 collective
##  6       1 individual
##  7       2 collective
##  8       0 none      
##  9       0 none      
## 10       0 none      
## # … with 119 more rows
```
…
