…
```r
library(tidybayes)

draws %>% 
  pivot_longer(starts_with("Ymi"),
               names_to = "row") %>% 
  group_by(row) %>% 
  # yep, that's right, we're summarizing as usual
  mean_qi(value) %>% 
  mutate_if(is.double, round, digits = 2) %>%
  select(row:.upper)
```

```
## # A tibble: 84 × 4
##    row                      value .lower .upper
##    <chr>                    <dbl>  <dbl>  <dbl>
##  1 Ymi_negemotzmissing[10]  -0.86  -2.34   0.64
##  2 Ymi_negemotzmissing[101]  0.15  -1.57   1.85
##  3 Ymi_negemotzmissing[117] -0.2   -1.82   1.42
##  4 Ymi_negemotzmissing[135]  0.26  -1.27   1.74
##  5 Ymi_negemotzmissing[139] -0.35  -1.91   1.21
##  6 Ymi_negemotzmissing[148] -1.38  -2.8    0.03
##  7 Ymi_negemotzmissing[150] -0.3   -1.69   1.13
##  8 Ymi_negemotzmissing[152]  0.02  -1.59   1.61
##  9 Ymi_negemotzmissing[153] -1.58  -3.13  -0.03
## 10 Ymi_negemotzmissing[154]  0.59  -0.83   2.02
## # … with 74 more rows
```
…
