…
<img src="13_files/figure-html/unnamed-chunk-13-1.png" width="960" />

Now we have `model1_fitted`, it's easy to get the typical numeric summaries for the differences.


```r
model1_fitted %>% 
  select(sexism, contains("-")) %>% 
  gather(key, value, -sexism) %>% 
  group_by(key, sexism) %>% 
  summarize(mean = mean(value),
            ll = quantile(value, probs = .025),
            ul = quantile(value, probs = .975)) %>% 
  mutate_if(is.double, round, digits = 3)
#> # A tibble: 9 x 5
#> # Groups:   key [3]
#>   key                                     sexism  mean     ll    ul
#>   <chr>                                    <dbl> <dbl>  <dbl> <dbl>
#> 1 Collective Protest - Individual Protest   4.25 0.639 -0.112 1.38 
#> 2 Collective Protest - Individual Protest   5.12 0.421 -0.073 0.91 
#> 3 Collective Protest - Individual Protest   5.90 0.226 -0.473 0.898
#> 4 Collective Protest - No Protest           4.25 1.01   0.317 1.70 
#> 5 Collective Protest - No Protest           5.12 1.65   1.17  2.15 
#> 6 Collective Protest - No Protest           5.90 2.22   1.48  2.94 
#> # ... with 3 more rows
```
…
<img src="13_files/figure-html/unnamed-chunk-30-1.png" width="960" />

Now we have `model1_fitted`, it's easy to get the typical numeric summaries for the differences.


```r
model1_fitted %>% 
  select(sexism, contains("-")) %>% 
  gather(key, value, -sexism) %>% 
  group_by(key, sexism) %>% 
  summarize(mean = mean(value),
            ll = quantile(value, probs = .025),
            ul = quantile(value, probs = .975)) %>% 
  mutate_if(is.double, round, digits = 3)
#> # A tibble: 9 x 5
#> # Groups:   key [3]
#>   key                                     sexism   mean     ll    ul
#>   <chr>                                    <dbl>  <dbl>  <dbl> <dbl>
#> 1 Collective Protest - Individual Protest   4.25 -0.114 -0.715 0.498
#> 2 Collective Protest - Individual Protest   5.12 -0.146 -0.55  0.263
#> 3 Collective Protest - Individual Protest   5.90 -0.174 -0.719 0.362
#> 4 Collective Protest - No Protest           4.25 -0.55  -1.14  0.048
#> 5 Collective Protest - No Protest           5.12 -0.11  -0.591 0.368
#> 6 Collective Protest - No Protest           5.90  0.282 -0.367 0.95 
#> # ... with 3 more rows
```
…
