recoding Introduction to Mediation, Moderation, and Conditional Process Analysis
…
post %>% 
  select(a1:i_y) %>% 
  gather() %>%
  group_by(key) %>% 
  summarize(mean = mean(value),
            sd = sd(value),
            ll = quantile(value, probs = .025),
            ul = quantile(value, probs = .975)) %>% 
  mutate_if(is.double, round, digits = 3)
#> # A tibble: 7 x 5
#>   key        mean    sd     ll    ul
#>   <chr>     <dbl> <dbl>  <dbl> <dbl>
#> 1 a1        1.26  0.26   0.756 1.77 
#> 2 a2        1.61  0.258  1.08  2.11 
#> 3 b         0.413 0.073  0.268 0.559
#> 4 c1_prime -0.008 0.227 -0.46  0.429
#> 5 c2_prime -0.224 0.231 -0.668 0.226
#> 6 i_m       3.88  0.186  3.51  4.25 
#> # ... with 1 more row
…
