recoding Introduction to Mediation, Moderation, and Conditional Process Analysis
…
make_donate <-function(w){
    post$b_donate_frame + post$`b_donate_frame:skeptic`*w
  }

Next, we’ll make a 30-row tibble with each row containing a value for skeptic, ranging from 0 ot 6, just like what we did with sapply(). Because we’ll be performing a nested operation for each value of skeptic, we’ll group the tibble by skeptic. Then with the mutate() function, we’ll use map() to apply our custom make_justify and make_donate functions to each of the 30 skeptic values.

tidyverse_style_tibble <-
  tibble(skeptic = seq(from = 0, to = 6, length.out = 30)) %>% 
  group_by(skeptic) %>% 
  mutate(`indirect effect` = map(skeptic, make_justify),
         `direct effect`   = map(skeptic, make_donate))

tidyverse_style_tibble

## # A tibble: 30 x 3
## # Groups:   skeptic [30]
##    skeptic `indirect effect` `direct effect`
##      <dbl> <list>            <list>         
##  1   0     <dbl [4,000]>     <dbl [4,000]>  
##  2   0.207 <dbl [4,000]>     <dbl [4,000]>  
##  3   0.414 <dbl [4,000]>     <dbl [4,000]>  
##  4   0.621 <dbl [4,000]>     <dbl [4,000]>  
##  5   0.828 <dbl [4,000]>     <dbl [4,000]>  
##  6   1.03  <dbl [4,000]>     <dbl [4,000]>  
##  7   1.24  <dbl [4,000]>     <dbl [4,000]>  
##  8   1.45  <dbl [4,000]>     <dbl [4,000]>  
##  9   1.66  <dbl [4,000]>     <dbl [4,000]>  
## 10   1.86  <dbl [4,000]>     <dbl [4,000]>  
## # ... with 20 more rows
…
