recoding Introduction to Mediation, Moderation, and Conditional Process Analysis
…
Here are their summaries. Since Bayesians use means, medians, and sometimes the mode to describe the central tendencies of a parameter, this time we’ll mix it up and just use the median.

post %>% 
  select(a1:c) %>% 
  gather() %>% 
  group_by(key) %>% 
  summarize(median = median(value), 
            ll = quantile(value, probs = .025),
            ul = quantile(value, probs = .975)) %>% 
  mutate_if(is_double, round, digits = 3)
#> # A tibble: 8 x 4
#>   key   median     ll    ul
#>   <chr>  <dbl>  <dbl> <dbl>
#> 1 a1     0.63   0.025 1.28 
#> 2 a1b1   0.195  0.008 0.452
#> 3 a2     0.478 -0.007 0.959
#> 4 a2b2   0.181 -0.003 0.428
#> 5 b1     0.323  0.184 0.465
#> 6 b2     0.398  0.216 0.586
#> # ... with 2 more rows
…
To get our version of the parameter summaries in Table 5.2, all you have to do is add the summaries for the intercepts to what we did above.

post %>% 
  rename(im1 = b_import_Intercept,
         im2 = b_pmi_Intercept,
         iy = b_reaction_Intercept) %>% 
  select(a1:d21, starts_with("i")) %>% 
  gather() %>% 
  group_by(key) %>% 
  summarize(mean = mean(value), 
            median = median(value), 
            ll = quantile(value, probs = .025),
            ul = quantile(value, probs = .975)) %>% 
  mutate_if(is_double, round, digits = 3)
#> # A tibble: 9 x 5
#>   key      mean median     ll    ul
#>   <chr>   <dbl>  <dbl>  <dbl> <dbl>
#> 1 a1      0.625  0.62  -0.014 1.25 
#> 2 a2      0.354  0.355 -0.121 0.833
#> 3 b1      0.325  0.325  0.187 0.466
#> 4 b2      0.396  0.397  0.217 0.582
#> 5 c_prime 0.103  0.1   -0.363 0.554
#> 6 d21     0.197  0.198  0.062 0.331
#> # ... with 3 more rows
…
