recoding Introduction to Mediation, Moderation, and Conditional Process Analysis
…
10.3 Visualizing the model

To get our version of the values in Table 10.2, we’ll first recreate columns \(D_{1}\) through \(W\) (SEXISM) and save then as a tibble, nd.

(
  nd <-
  tibble(D1 = rep(c(0, 1, 0), each = 3),
         D2 = rep(c(0, 0, 1), each = 3),
         sexism = rep(quantile(protest$sexism, probs = c(.16, .5, .84)), 
                      times = 3))
  )
#> # A tibble: 9 x 3
#>      D1    D2 sexism
#>   <dbl> <dbl>  <dbl>
#> 1     0     0   4.31
#> 2     0     0   5.12
#> 3     0     0   5.87
#> 4     1     0   4.31
#> 5     1     0   5.12
#> 6     1     0   5.87
#> # ... with 3 more rows
…
