recoding Introduction to Mediation, Moderation, and Conditional Process Analysis
…
Columns b_govactz_Intercept through sigma_negemotzmissing were business as usual. But notice all the Ymi_negemotzmissing[i] columns. In each of these we see 4,000 posterior draws for the missing negemot_z_missing values. The [i] part of the column names indexes which row number the iterations correspond to. Since we made a lot of missing values in the data, I won’t go through them all. But we can focus on a few to get a sense of the results.

post %>% 
  select(`Ymi_negemotzmissing[7]`:`Ymi_negemotzmissing[131]`) %>% 
  gather(row, value) %>% 
  group_by(row) %>% 
  # Yep, that's right, we're summarizing as usual
  summarize(mean = mean(value),
            sd = sd(value),
            ll = quantile(value, probs = .025),
            ul = quantile(value, probs = .975)) %>% 
  mutate_if(is.double, round, digits = 2) %>%
  mutate(row = str_extract(row, "\\d+") %>% as.integer())  # this line just makes the row names easier to read
#> # A tibble: 13 x 5
#>     row   mean    sd    ll    ul
#>   <int>  <dbl> <dbl> <dbl> <dbl>
#> 1   103  0.65   0.83 -0.93  2.32
#> 2   107 -0.580  0.77 -2.07  0.9 
#> 3   131 -0.48   0.74 -1.88  1   
#> 4    22  0.38   0.79 -1.11  1.95
#> 5    31 -0.13   0.76 -1.62  1.34
#> 6    55 -0.26   0.83 -1.9   1.38
#> # ... with 7 more rows
…
